{
    "name" : "--- Template Mugenengine ---",
    "fullscreen" : false,
    "vsync"      : false,
    "smooth"     : false,
    "width"      : 640,
    "height"     : 360,
    "scaleWin"   : 2,
    "scaleFull"  : 0,
    "gridW"      : 16,
    "gridH"      : 16
}
